(module "SOT-23-6_L2.9-W1.6-P0.95-LS2.8-BL" (layer F.Cu) (tedit 65FD5384)
  (descr "SOT-23-6_L2.9-W1.6-P0.95-LS2.8-BL footprint")
  (tags "SOT-23-6_L2.9-W1.6-P0.95-LS2.8-BL footprint C5197386")
  (attr smd)
  (fp_text reference REF** (at 0 -3.149098) (layer F.SilkS)
    (effects (font (size 1 1) (thickness 0.15)))
  )
  (fp_text value SOT-23-6_L2.9-W1.6-P0.95-LS2.8-BL (at 0 3.149098) (layer F.Fab)
    (effects (font (size 1 1) (thickness 0.15)))
  )
  (fp_circle (center -1.463018 1.4) (end -1.43302 1.4) (layer F.SilkS) (width 0.059995))
  (fp_circle (center -0.91999 1.679959) (end -0.819914 1.679959) (layer F.Fab) (width 0.2))
  (fp_circle (center -1.668275 1.301499) (end -1.518161 1.301499) (layer F.SilkS) (width 0.3))
  (fp_line (start 1.539192 0.889205) (end 1.539192 -0.889205) (layer F.SilkS) (width 0.1524))
  (fp_line (start -1.539192 0.889205) (end -1.539192 -0.889205) (layer F.SilkS) (width 0.1524))
  (pad 1 smd rect (at -0.949962 1.149098) (size 0.532004 1.072009) (layers F.Cu F.Mask F.Paste))
  (pad 2 smd rect (at 0 1.149098) (size 0.532004 1.072009) (layers F.Cu F.Mask F.Paste))
  (pad 3 smd rect (at 0.949962 1.149098) (size 0.532004 1.072009) (layers F.Cu F.Mask F.Paste))
  (pad 4 smd rect (at 0.949962 -1.149098) (size 0.532004 1.072009) (layers F.Cu F.Mask F.Paste))
  (pad 5 smd rect (at 0 -1.149098) (size 0.532004 1.072009) (layers F.Cu F.Mask F.Paste))
  (pad 6 smd rect (at -0.949962 -1.149098) (size 0.532004 1.072009) (layers F.Cu F.Mask F.Paste))
  (fp_text user REF** (at 0 5.149098) (layer F.Fab)
    (effects (font (size 1 1) (thickness 0.15)))
  )
  (model JLC2KiCad_lib/footprint/packages3d/SOT-23-6_L2.9-W1.6-P0.95-LS2.8-BL.step
    (at (xyz 0.033 -0.038 0))
    (scale (xyz 1 1 1))
    (rotate (xyz 0 0 -90))
  )
)