(module "SOT-23-3_L2.9-W1.3-P1.90-LS2.4-BR" (layer F.Cu) (tedit 65FD8A0D)
  (descr "SOT-23-3_L2.9-W1.3-P1.90-LS2.4-BR footprint")
  (tags "SOT-23-3_L2.9-W1.3-P1.90-LS2.4-BR footprint C14839")
  (attr smd)
  (fp_text reference REF** (at 0 -3.526213) (layer F.SilkS)
    (effects (font (size 1 1) (thickness 0.15)))
  )
  (fp_text value SOT-23-3_L2.9-W1.3-P1.90-LS2.4-BR (at 0 3.526213) (layer F.Fab)
    (effects (font (size 1 1) (thickness 0.15)))
  )
  (fp_circle (center 1.2 1.450013) (end 1.229997 1.450013) (layer F.SilkS) (width 0.059995))
  (fp_circle (center 1.459995 1.100076) (end 1.560071 1.100076) (layer F.Fab) (width 0.2))
  (fp_line (start 0.726213 -1.526213) (end -0.726213 -1.526213) (layer F.SilkS) (width 0.1524))
  (fp_line (start -0.726213 -1.526213) (end -0.726213 -0.49459) (layer F.SilkS) (width 0.1524))
  (fp_line (start 0.726213 1.526213) (end -0.726213 1.526213) (layer F.SilkS) (width 0.1524))
  (fp_line (start -0.726213 1.526213) (end -0.726213 0.49459) (layer F.SilkS) (width 0.1524))
  (fp_line (start 0.726213 -0.455398) (end 0.726213 0.455398) (layer F.SilkS) (width 0.1524))
  (pad 1 smd rect (at 1 0.949962) (size 1.250013 0.7) (layers F.Cu F.Mask F.Paste))
  (pad 2 smd rect (at 1 -0.949962) (size 1.250013 0.7) (layers F.Cu F.Mask F.Paste))
  (pad 3 smd rect (at -1 0) (size 1.250013 0.7) (layers F.Cu F.Mask F.Paste))
  (fp_text user REF** (at 0 5.526213) (layer F.Fab)
    (effects (font (size 1 1) (thickness 0.15)))
  )
  (model JLC2KiCad_lib/footprint/packages3d/SOT-23-3_L2.9-W1.3-P1.90-LS2.4-BR.step
    (at (xyz -33.92 33.2 0))
    (scale (xyz 1 1 1))
    (rotate (xyz 0 0 -180))
  )
)