(kicad_sch
	(version 20231120)
	(generator "eeschema")
	(generator_version "8.0")
	(uuid "afc54b84-677d-4308-8c72-29834edcf859")
	(paper "A4")
	(lib_symbols
		(symbol "Connector:Conn_01x03_Socket"
			(pin_names
				(offset 1.016) hide)
			(exclude_from_sim no)
			(in_bom yes)
			(on_board yes)
			(property "Reference" "J"
				(at 0 5.08 0)
				(effects
					(font
						(size 1.27 1.27)
					)
				)
			)
			(property "Value" "Conn_01x03_Socket"
				(at 0 -5.08 0)
				(effects
					(font
						(size 1.27 1.27)
					)
				)
			)
			(property "Footprint" ""
				(at 0 0 0)
				(effects
					(font
						(size 1.27 1.27)
					)
					(hide yes)
				)
			)
			(property "Datasheet" "~"
				(at 0 0 0)
				(effects
					(font
						(size 1.27 1.27)
					)
					(hide yes)
				)
			)
			(property "Description" "Generic connector, single row, 01x03, script generated"
				(at 0 0 0)
				(effects
					(font
						(size 1.27 1.27)
					)
					(hide yes)
				)
			)
			(property "ki_locked" ""
				(at 0 0 0)
				(effects
					(font
						(size 1.27 1.27)
					)
				)
			)
			(property "ki_keywords" "connector"
				(at 0 0 0)
				(effects
					(font
						(size 1.27 1.27)
					)
					(hide yes)
				)
			)
			(property "ki_fp_filters" "Connector*:*_1x??_*"
				(at 0 0 0)
				(effects
					(font
						(size 1.27 1.27)
					)
					(hide yes)
				)
			)
			(symbol "Conn_01x03_Socket_1_1"
				(arc
					(start 0 -2.032)
					(mid -0.5058 -2.54)
					(end 0 -3.048)
					(stroke
						(width 0.1524)
						(type default)
					)
					(fill
						(type none)
					)
				)
				(polyline
					(pts
						(xy -1.27 -2.54) (xy -0.508 -2.54)
					)
					(stroke
						(width 0.1524)
						(type default)
					)
					(fill
						(type none)
					)
				)
				(polyline
					(pts
						(xy -1.27 0) (xy -0.508 0)
					)
					(stroke
						(width 0.1524)
						(type default)
					)
					(fill
						(type none)
					)
				)
				(polyline
					(pts
						(xy -1.27 2.54) (xy -0.508 2.54)
					)
					(stroke
						(width 0.1524)
						(type default)
					)
					(fill
						(type none)
					)
				)
				(arc
					(start 0 0.508)
					(mid -0.5058 0)
					(end 0 -0.508)
					(stroke
						(width 0.1524)
						(type default)
					)
					(fill
						(type none)
					)
				)
				(arc
					(start 0 3.048)
					(mid -0.5058 2.54)
					(end 0 2.032)
					(stroke
						(width 0.1524)
						(type default)
					)
					(fill
						(type none)
					)
				)
				(pin passive line
					(at -5.08 2.54 0)
					(length 3.81)
					(name "Pin_1"
						(effects
							(font
								(size 1.27 1.27)
							)
						)
					)
					(number "1"
						(effects
							(font
								(size 1.27 1.27)
							)
						)
					)
				)
				(pin passive line
					(at -5.08 0 0)
					(length 3.81)
					(name "Pin_2"
						(effects
							(font
								(size 1.27 1.27)
							)
						)
					)
					(number "2"
						(effects
							(font
								(size 1.27 1.27)
							)
						)
					)
				)
				(pin passive line
					(at -5.08 -2.54 0)
					(length 3.81)
					(name "Pin_3"
						(effects
							(font
								(size 1.27 1.27)
							)
						)
					)
					(number "3"
						(effects
							(font
								(size 1.27 1.27)
							)
						)
					)
				)
			)
		)
	)
	(junction
		(at 140.97 92.71)
		(diameter 0)
		(color 0 0 0 0)
		(uuid "0c24abca-ac93-4777-878a-37c79892d4c0")
	)
	(wire
		(pts
			(xy 132.08 92.71) (xy 140.97 92.71)
		)
		(stroke
			(width 0)
			(type default)
		)
		(uuid "3e9f1638-24de-4573-9eb0-b4695b06ee9e")
	)
	(wire
		(pts
			(xy 140.97 95.25) (xy 147.32 95.25)
		)
		(stroke
			(width 0)
			(type default)
		)
		(uuid "5b3f46c8-9a06-48f7-a55d-d79053ae8eb1")
	)
	(wire
		(pts
			(xy 147.32 90.17) (xy 140.97 90.17)
		)
		(stroke
			(width 0)
			(type default)
		)
		(uuid "6142a742-6df7-4718-8345-bbeb1a0bcc5f")
	)
	(wire
		(pts
			(xy 147.32 92.71) (xy 140.97 92.71)
		)
		(stroke
			(width 0)
			(type default)
		)
		(uuid "975216f0-55f1-48ac-adde-a0221942bd16")
	)
	(wire
		(pts
			(xy 140.97 90.17) (xy 140.97 92.71)
		)
		(stroke
			(width 0)
			(type default)
		)
		(uuid "a9a851f0-02cc-4a9e-b2b3-74147961dab3")
	)
	(wire
		(pts
			(xy 140.97 92.71) (xy 140.97 95.25)
		)
		(stroke
			(width 0)
			(type default)
		)
		(uuid "d3a6f8e4-f554-48e2-802e-a993cc368870")
	)
	(hierarchical_label "GND"
		(shape input)
		(at 132.08 92.71 180)
		(fields_autoplaced yes)
		(effects
			(font
				(size 1.27 1.27)
			)
			(justify right)
		)
		(uuid "2764f723-709f-446e-9717-53291ba5a591")
	)
	(symbol
		(lib_id "Connector:Conn_01x03_Socket")
		(at 152.4 92.71 0)
		(unit 1)
		(exclude_from_sim no)
		(in_bom yes)
		(on_board yes)
		(dnp no)
		(fields_autoplaced yes)
		(uuid "815bdcfd-705e-4477-9e5b-6aa354a8c18a")
		(property "Reference" "J14"
			(at 153.67 91.44 0)
			(effects
				(font
					(size 1.27 1.27)
				)
				(justify left)
			)
		)
		(property "Value" "Ground_header"
			(at 153.67 93.98 0)
			(effects
				(font
					(size 1.27 1.27)
				)
				(justify left)
			)
		)
		(property "Footprint" "Connector_PinSocket_2.54mm:PinSocket_1x03_P2.54mm_Vertical"
			(at 152.4 92.71 0)
			(effects
				(font
					(size 1.27 1.27)
				)
				(hide yes)
			)
		)
		(property "Datasheet" "~"
			(at 152.4 92.71 0)
			(effects
				(font
					(size 1.27 1.27)
				)
				(hide yes)
			)
		)
		(property "Description" ""
			(at 152.4 92.71 0)
			(effects
				(font
					(size 1.27 1.27)
				)
				(hide yes)
			)
		)
		(property "Availability" ""
			(at 152.4 92.71 0)
			(effects
				(font
					(size 1.27 1.27)
				)
				(hide yes)
			)
		)
		(property "Check_prices" ""
			(at 152.4 92.71 0)
			(effects
				(font
					(size 1.27 1.27)
				)
				(hide yes)
			)
		)
		(property "MF" ""
			(at 152.4 92.71 0)
			(effects
				(font
					(size 1.27 1.27)
				)
				(hide yes)
			)
		)
		(property "MP" ""
			(at 152.4 92.71 0)
			(effects
				(font
					(size 1.27 1.27)
				)
				(hide yes)
			)
		)
		(property "Package" ""
			(at 152.4 92.71 0)
			(effects
				(font
					(size 1.27 1.27)
				)
				(hide yes)
			)
		)
		(property "Pole4" ""
			(at 152.4 92.71 0)
			(effects
				(font
					(size 1.27 1.27)
				)
				(hide yes)
			)
		)
		(property "Price" ""
			(at 152.4 92.71 0)
			(effects
				(font
					(size 1.27 1.27)
				)
				(hide yes)
			)
		)
		(property "Purchase-URL" ""
			(at 152.4 92.71 0)
			(effects
				(font
					(size 1.27 1.27)
				)
				(hide yes)
			)
		)
		(property "SnapEDA_Link" ""
			(at 152.4 92.71 0)
			(effects
				(font
					(size 1.27 1.27)
				)
				(hide yes)
			)
		)
		(pin "1"
			(uuid "17706b34-51f8-40b2-acaa-d319c60ea87c")
		)
		(pin "3"
			(uuid "4b662415-bf18-4f0d-bf18-e5eb23a1fbe5")
		)
		(pin "2"
			(uuid "e6872e3b-7299-43fa-8343-2acddbee373e")
		)
		(instances
			(project "enigma"
				(path "/7a7dcf6f-2ea3-4831-b4dc-6e567e33b4c9/f244861f-ac18-4aca-a82d-a66f1634719c"
					(reference "J14")
					(unit 1)
				)
			)
		)
	)
)